<svg xmlns="http://www.w3.org/2000/svg" viewBox="0 0 393 160.221">
  <defs>
    <style>
      .cls-1 {
        fill: #b5bcc2;
      }

      .cls-2 {
        fill: #a4b0bc;
      }

      .cls-3, .cls-4 {
        fill: #4e4e4e;
      }

      .cls-3 {
        font-size: 29px;
        font-family: Roboto-Medium, Roboto;
        font-weight: 500;
        opacity: 0.62;
      }

      .cls-4 {
        font-size: 14px;
        font-family: Roboto-Regular, Roboto;
        opacity: 0.49;
      }
    </style>
  </defs>
  <g id="Group_73" data-name="Group 73" transform="translate(-1431 -426.779)">
    <g id="business-card-of-a-man-with-contact-info" transform="translate(1576.619 426.779)">
      <g id="Group_11" data-name="Group 11" transform="translate(0 0)">
        <path id="Path_155" data-name="Path 155" class="cls-1" d="M33.357,37.267H31.034a2.181,2.181,0,0,1-2.183-2.18,1.658,1.658,0,0,1,.5-1.187,15.665,15.665,0,0,0,3.31-4.984.934.934,0,0,0,.55.212c1.3,0,2.841-2.882,2.841-4.847s-.182-3.558-1.489-3.558a2.013,2.013,0,0,0-.484.069C33.985,15.464,32.64,8.817,24.5,8.817c-8.489,0-9.478,6.635-9.574,11.957a1.864,1.864,0,0,0-.35-.051c-1.307,0-1.486,1.594-1.486,3.558s1.531,4.847,2.838,4.847A.894.894,0,0,0,16.383,29a15.714,15.714,0,0,0,3.271,4.907,1.646,1.646,0,0,1,.5,1.184,2.183,2.183,0,0,1-2.183,2.183H15.644a9,9,0,0,0-9,9v2.494a2.841,2.841,0,0,0,2.841,2.841H39.514a2.841,2.841,0,0,0,2.838-2.841V46.273A9,9,0,0,0,33.357,37.267Z" transform="translate(13.228 8.406)"/>
        <path id="Path_156" data-name="Path 156" class="cls-2" d="M41.347,10.077H16.168a18.514,18.514,0,0,1,1.462,6.037A3.655,3.655,0,0,1,18.9,17.627H41.347a2.1,2.1,0,0,0,2.105-2.1v-3.34A2.1,2.1,0,0,0,41.347,10.077Z" transform="translate(32.175 10.913)"/>
        <path id="Path_157" data-name="Path 157" class="cls-2" d="M42.036,14.678H20.1c-.6,2.249-2.06,4.6-4.09,5.23-.06.111-.129.206-.191.317v2H42.033a2.1,2.1,0,0,0,2.1-2.108V16.783A2.1,2.1,0,0,0,42.036,14.678Z" transform="translate(31.487 20.069)"/>
        <path id="Path_158" data-name="Path 158" class="cls-2" d="M35.984,19.279H18.863a11.494,11.494,0,0,1,1.794,6.166v1.384H35.984a2.1,2.1,0,0,0,2.105-2.105v-3.34A2.1,2.1,0,0,0,35.984,19.279Z" transform="translate(37.538 29.226)"/>
        <path id="Path_159" data-name="Path 159" class="cls-2" d="M82.57,3.057H12.932A12.931,12.931,0,0,0,0,15.989V67.346A12.929,12.929,0,0,0,12.932,80.278H82.57A12.928,12.928,0,0,0,95.5,67.346V15.989A12.928,12.928,0,0,0,82.57,3.057ZM89.4,67.346a6.833,6.833,0,0,1-6.826,6.826H12.932a6.833,6.833,0,0,1-6.826-6.826V15.989a6.833,6.833,0,0,1,6.826-6.826H82.57A6.833,6.833,0,0,1,89.4,15.989V67.346Z" transform="translate(0 -3.057)"/>
      </g>
    </g>
    <text id="No_Business_Card_Display_Yet." data-name="No Business Card Display Yet." class="cls-3" transform="translate(1431 551)"><tspan x="0" y="0">No Business Card Display Yet.</tspan></text>
    <text id="Click_on_the_meeting_timeline_to_display_business_card" data-name="Click on the meeting timeline to display business card" class="cls-4" transform="translate(1459 583)"><tspan x="0" y="0">Click on the meeting timeline to display business card</tspan></text>
  </g>
</svg>
