<svg xmlns="http://www.w3.org/2000/svg" viewBox="0 0 136 18">
  <defs>
    <style>
      .cls-1 {
        fill: #eef2f6;
      }

      .cls-2 {
        fill: #4455ec;
      }
    </style>
  </defs>
  <g id="Group_82" data-name="Group 82" transform="translate(-1247 -687)">
    <g id="Group_81" data-name="Group 81">
      <g id="Group_80" data-name="Group 80">
        <g id="Group_79" data-name="Group 79">
          <g id="Group_78" data-name="Group 78">
            <g id="Group_77" data-name="Group 77">
              <g id="Group_76" data-name="Group 76">
                <g id="Group_75" data-name="Group 75">
                  <g id="Group_74" data-name="Group 74">
                    <g id="Group_73" data-name="Group 73">
                      <g id="Group_72" data-name="Group 72">
                        <g id="Group_71" data-name="Group 71">
                          <rect id="Rectangle_1503" data-name="Rectangle 1503" class="cls-1" width="136" height="18" rx="9" transform="translate(1247 687)"/>
                          <rect id="Rectangle_1504" data-name="Rectangle 1504" class="cls-2" width="80" height="18" rx="9" transform="translate(1247 687)"/>
                        </g>
                      </g>
                    </g>
                  </g>
                </g>
              </g>
            </g>
          </g>
        </g>
      </g>
    </g>
  </g>
</svg>
